<svg width="48" height="48" viewBox="0 0 48 48" fill="none" xmlns="http://www.w3.org/2000/svg">
<g opacity="0.5">
<path d="M7.5 23.25C7.08579 23.25 6.75 23.5858 6.75 24C6.75 24.4142 7.08579 24.75 7.5 24.75V23.25ZM40.5 24.75C40.9142 24.75 41.25 24.4142 41.25 24C41.25 23.5858 40.9142 23.25 40.5 23.25V24.75ZM7.5 30.75C7.08579 30.75 6.75 31.0858 6.75 31.5C6.75 31.9142 7.08579 32.25 7.5 32.25V30.75ZM40.5 32.25C40.9142 32.25 41.25 31.9142 41.25 31.5C41.25 31.0858 40.9142 30.75 40.5 30.75V32.25ZM7.5 38.25C7.08579 38.25 6.75 38.5858 6.75 39C6.75 39.4142 7.08579 39.75 7.5 39.75V38.25ZM40.5 39.75C40.9142 39.75 41.25 39.4142 41.25 39C41.25 38.5858 40.9142 38.25 40.5 38.25V39.75ZM11.25 9.75H36.75V8.25H11.25V9.75ZM11.25 17.25H36.75V15.75H11.25V17.25ZM36.75 17.25C39.2353 17.25 41.25 15.2353 41.25 12.75H39.75C39.75 14.4069 38.4069 15.75 36.75 15.75V17.25ZM11.25 15.75C9.59315 15.75 8.25 14.4069 8.25 12.75H6.75C6.75 15.2353 8.76472 17.25 11.25 17.25V15.75ZM36.75 9.75C38.4069 9.75 39.75 11.0931 39.75 12.75H41.25C41.25 10.2647 39.2353 8.25 36.75 8.25V9.75ZM11.25 8.25C8.76472 8.25 6.75 10.2647 6.75 12.75H8.25C8.25 11.0931 9.59315 9.75 11.25 9.75V8.25ZM7.5 24.75H40.5V23.25H7.5V24.75ZM7.5 32.25H40.5V30.75H7.5V32.25ZM7.5 39.75H40.5V38.25H7.5V39.75Z" fill="#646C7A"/>
</g>
</svg>
